<?xml version="1.0" encoding="utf-8"?>
<!-- Generator: Adobe Illustrator 22.0.1, SVG Export Plug-In . SVG Version: 6.00 Build 0)  -->
<svg version="1.1" id="Calque_1" xmlns="http://www.w3.org/2000/svg" xmlns:xlink="http://www.w3.org/1999/xlink" x="0px" y="0px"
	 viewBox="0 0 1000 1000" style="enable-background:new 0 0 1000 1000;" xml:space="preserve">
<style type="text/css">
	.st0{fill:#1D1D1B;}
</style>
<rect x="243" y="723" class="st0" width="154" height="74"/>
<rect x="83" y="723" class="st0" width="154" height="74"/>
<rect x="163" y="643" class="st0" width="154" height="74"/>
<rect x="3" y="643" class="st0" width="154" height="74"/>
<rect x="403" y="723" class="st0" width="154" height="74"/>
<rect x="243" y="563" class="st0" width="154" height="74"/>
<rect x="83" y="563" class="st0" width="154" height="74"/>
<rect x="403" y="563" class="st0" width="154" height="74"/>
<rect x="243" y="403" class="st0" width="154" height="74"/>
<rect x="83" y="403" class="st0" width="154" height="74"/>
<rect x="403" y="403" class="st0" width="154" height="74"/>
<rect x="243" y="243" class="st0" width="154" height="74"/>
<rect x="83" y="243" class="st0" width="154" height="74"/>
<rect x="403" y="243" class="st0" width="154" height="74"/>
<rect x="243" y="83" class="st0" width="154" height="74"/>
<rect x="83" y="83" class="st0" width="154" height="74"/>
<rect x="403" y="83" class="st0" width="154" height="74"/>
<rect x="323" y="643" class="st0" width="154" height="74"/>
<rect x="163" y="483" class="st0" width="154" height="74"/>
<rect x="3" y="483" class="st0" width="154" height="74"/>
<rect x="323" y="483" class="st0" width="154" height="74"/>
<rect x="163" y="963" class="st0" width="154" height="74"/>
<rect x="3" y="963" class="st0" width="154" height="74"/>
<rect x="243" y="883" class="st0" width="154" height="74"/>
<rect x="83" y="883" class="st0" width="154" height="74"/>
<rect x="403" y="883" class="st0" width="154" height="74"/>
<rect x="323" y="963" class="st0" width="154" height="74"/>
<rect x="163" y="803" class="st0" width="154" height="74"/>
<rect x="3" y="803" class="st0" width="154" height="74"/>
<rect x="323" y="803" class="st0" width="154" height="74"/>
<rect x="163" y="323" class="st0" width="154" height="74"/>
<rect x="3" y="323" class="st0" width="154" height="74"/>
<rect x="323" y="323" class="st0" width="154" height="74"/>
<rect x="163" y="163" class="st0" width="154" height="74"/>
<rect x="3" y="163" class="st0" width="154" height="74"/>
<rect x="323" y="163" class="st0" width="154" height="74"/>
<rect x="163" y="3" class="st0" width="154" height="74"/>
<rect x="3" y="3" class="st0" width="154" height="74"/>
<rect x="323" y="3" class="st0" width="154" height="74"/>
<rect x="243" y="-77" class="st0" width="154" height="74"/>
<rect x="83" y="-77" class="st0" width="154" height="74"/>
<rect x="403" y="-77" class="st0" width="154" height="74"/>
<rect x="163" y="-157" class="st0" width="154" height="74"/>
<rect x="3" y="-157" class="st0" width="154" height="74"/>
<rect x="323" y="-157" class="st0" width="154" height="74"/>
</svg>
