<?xml version="1.0" encoding="utf-8"?>
<!-- Generator: Adobe Illustrator 22.0.1, SVG Export Plug-In . SVG Version: 6.00 Build 0)  -->
<svg version="1.1" id="Calque_1" xmlns="http://www.w3.org/2000/svg" xmlns:xlink="http://www.w3.org/1999/xlink" x="0px" y="0px"
	 viewBox="0 0 1000 1000" style="enable-background:new 0 0 1000 1000;" xml:space="preserve">
<style type="text/css">
	.st0{fill:#1D1D1B;}
</style>
<path class="st0" d="M480,0H160c-40,0-80,40-80,80v640c0,40,40,80,80,80h320c40,0,80-40,80-80V560H400v60c0,11-9,20-20,20H260
	c-11,0-20-9-20-20V180c0-11,9-20,20-20h120c11,0,20,9,20,20v60h160V80C560,40,520,0,480,0z"/>
</svg>
