<?xml version="1.0" encoding="utf-8"?>
<!-- Generator: Adobe Illustrator 22.0.1, SVG Export Plug-In . SVG Version: 6.00 Build 0)  -->
<svg version="1.1" id="Calque_1" xmlns="http://www.w3.org/2000/svg" xmlns:xlink="http://www.w3.org/1999/xlink" x="0px" y="0px"
	 viewBox="0 0 1000 1000" style="enable-background:new 0 0 1000 1000;" xml:space="preserve">
<style type="text/css">
	.st0{fill:#1D1D1B;}
</style>
<path class="st0" d="M560,720V240c0-40-40-80-80-80H160c-40,0-80,40-80,80v720h160V800h240C520,800,560,760,560,720z M380,320
	c11,0,20,9,20,20v280c0,11-9,20-20,20H240V340c0-11,9-20,20-20H380z"/>
</svg>
